Lab 2/simulation/qsim/Lab2.msim.vcd
$comment
	File created using the following command:
		vcd file Lab2.msim.vcd -direction
$end
$date
	Wed Sep 20 13:36:11 2017
$end
$version
	ModelSim Version 10.4d
$end
$timescale
	1ps
$end

$scope module mux_vlg_vec_tst $end
$var reg 10 ! SW [9:0] $end
$var wire 1 " LEDR [9] $end
$var wire 1 # LEDR [8] $end
$var wire 1 $ LEDR [7] $end
$var wire 1 % LEDR [6] $end
$var wire 1 & LEDR [5] $end
$var wire 1 ' LEDR [4] $end
$var wire 1 ( LEDR [3] $end
$var wire 1 ) LEDR [2] $end
$var wire 1 * LEDR [1] $end
$var wire 1 + LEDR [0] $end

$scope module i1 $end
$var wire 1 , gnd $end
$var wire 1 - vcc $end
$var wire 1 . unknown $end
$var tri1 1 / devclrn $end
$var tri1 1 0 devpor $end
$var tri1 1 1 devoe $end
$var wire 1 2 SW[4]~input_o $end
$var wire 1 3 SW[5]~input_o $end
$var wire 1 4 SW[6]~input_o $end
$var wire 1 5 SW[7]~input_o $end
$var wire 1 6 ~QUARTUS_CREATED_GND~I_combout $end
$var wire 1 7 SW[2]~input_o $end
$var wire 1 8 SW[8]~input_o $end
$var wire 1 9 SW[3]~input_o $end
$var wire 1 : SW[1]~input_o $end
$var wire 1 ; SW[9]~input_o $end
$var wire 1 < SW[0]~input_o $end
$var wire 1 = u2|m~0_combout $end
$upscope $end
$upscope $end
$enddefinitions $end
#0
$dumpvars
b0xxxx0001 !
1+
0*
0)
0(
0'
0&
0%
0$
0#
0"
0,
1-
x.
1/
10
11
x2
x3
x4
x5
06
07
08
09
0:
0;
1<
1=
$end
#40000
b0xxxx0000 !
b0xxxx0010 !
0<
1:
0=
0+
#60000
b0xxxx0110 !
b0xxxx0100 !
0:
17
#80000
b0xxxx1100 !
b0xxxx1000 !
07
19
#100000
b0xxxx0000 !
09
#140000
b1xxxx0000 !
b1xxxx0001 !
1<
18
#160000
b1xxxx0011 !
b1xxxx0010 !
0<
1:
1=
1+
#200000
b1xxxx0110 !
b1xxxx0100 !
0:
17
0=
0+
#220000
b1xxxx1100 !
b1xxxx1000 !
07
19
#240000
b1xxxx0000 !
09
#260000
b11xxxx0000 !
b10xxxx0000 !
b10xxxx0001 !
1<
08
1;
#280000
b10xxxx0011 !
b10xxxx0010 !
0<
1:
#300000
b10xxxx0110 !
b10xxxx0100 !
0:
17
1=
1+
#340000
b10xxxx1100 !
b10xxxx1000 !
07
19
0=
0+
#360000
b10xxxx0000 !
09
#380000
b0xxxx0000 !
0;
#400000
b1xxxx0000 !
b1xxxx0001 !
b11xxxx0001 !
1<
18
1;
#420000
b11xxxx0011 !
b11xxxx0010 !
0<
1:
#440000
b11xxxx0110 !
b11xxxx0100 !
0:
17
#460000
b11xxxx1100 !
b11xxxx1000 !
07
19
1=
1+
#500000
b11xxxx0000 !
09
0=
0+
#540000
b10xxxx0000 !
b0xxxx0000 !
08
0;
